Statistical Inference and Data Exploration for Archaeologists
…
```r
library(rio)  

# read in the data
j_data <- import("https://bit.ly/j_data_xlsx", setclass = "tbl_df")  

# take a look
*j_data
```
]
 
.right-output-import-auto[

```
# A tibble: 9,752 x 48
   Site  Square  Spit Group Artno Material Colour Weight Length Artclas Cortex
   <chr> <chr>  <dbl> <dbl> <dbl> <chr>    <chr>   <dbl>  <dbl> <chr>    <dbl>
 1 J     B          1     1     1 Chert    Brown   1.83   22.0  Flake        0
 2 J     B          1     1     2 Chert    Yellow  0.61   14.6  RetF         0
 3 J     B          1     1     3 Chert    Dk Gr…  3.81   29.6  Core         0
 4 J     B          1     1     4 Chert    Grey    0.13    5.83 RetFrag      0
 5 J     B          1     1     5 Chert    Grey    0.05    7.07 Flake        0
 6 J     B          1     1     6 Chert    Lt Br…  0.580  11.1  Core        NA
 7 J     B          1     1     7 Chert    Dk Br…  0.03    5.72 Flake        0
 8 J     B          1     1     8 Chert    Cream   0.02    8.37 FFrag        0
 9 J     B          1     1     9 Chert    Grey    0.21   10.7  Flake-b      0
10 J     B          1     1    10 Chert    Grey    0.25   14.3  Flake        0
# … with 9,742 more rows, and 37 more variables: Cortype <chr>, Initiat <chr>,
#   Breaks <chr>, Noseg <dbl>, Platwid <dbl>, Plat <chr>, Focal <lgl>,
#   Overhang <chr>, NoDS <dbl>, NoPS <dbl>, Rtch <chr>, Plat_2 <chr>,
#   Focal_2 <lgl>, Overhang_2 <chr>, NoDS_2 <dbl>, NoPS_2 <dbl>, Rtch_2 <chr>,
#   RetOri <chr>, Retype <chr>, Retloc <chr>, Retlen <dbl>, Retdep <dbl>,
#   Portion <chr>, Heat <dbl>, EdgeDam <dbl>, Weathering <dbl>, Corerot <dbl>,
#   RetScNo <dbl>, Term <chr>, Janus <lgl>, Recycled <lgl>, Redirect <lgl>,
#   Width <dbl>, Thick <dbl>, Platthic <dbl>, area <dbl>, elongation <dbl>
```
…
Compute the observed statistic, and use our real data to generate many fake datasets based on our null hypothesis
.left-code-test-chi-square-2-auto[

```r
library(infer)  

# compute chi-square statistic
*j_data1
```
]
 
.right-output-test-chi-square-2-auto[

```
# A tibble: 297 x 48
   Site  Square  Spit Group Artno Material Colour Weight Length Artclas Cortex
   <chr> <chr>  <dbl> <dbl> <dbl> <chr>    <chr>   <dbl>  <dbl> <chr>    <dbl>
 1 J     B          1     1    33 Volcanic Brown    0.23   8.5  Flake        0
 2 J     B          1     1    38 Volcanic Dk Gr…   0.06   4.24 Flake       60
 3 J     B          1     1    70 Volcanic Dk Br…   0.31   7.43 Hshat       NA
 4 J     B          1     1    71 Volcanic Dk Br…   0.26   6.4  Hshat       NA
 5 J     B          1     1    72 Volcanic Dk Br…   0.06   7.3  Hshat       NA
 6 J     B          1     1    73 Volcanic Dk Br…   0.16   7.84 Hshat       NA
 7 J     B          1     1    78 Volcanic Lt Br…   0.02   6.47 Hshat       NA
 8 J     B          2     1    88 Volcanic Grey     0.38  13.3  Flake       40
 9 J     B          3     1   130 Volcanic Grey    17.8   38.4  Flake        0
10 J     B          3     1   131 Volcanic Grey    32.1   57.4  Flake       40
# … with 287 more rows, and 37 more variables: Cortype <chr>, Initiat <chr>,
#   Breaks <chr>, Noseg <dbl>, Platwid <dbl>, Plat <chr>, Focal <lgl>,
#   Overhang <chr>, NoDS <dbl>, NoPS <dbl>, Rtch <chr>, Plat_2 <chr>,
#   Focal_2 <lgl>, Overhang_2 <chr>, NoDS_2 <dbl>, NoPS_2 <dbl>, Rtch_2 <chr>,
#   RetOri <chr>, Retype <chr>, Retloc <chr>, Retlen <dbl>, Retdep <dbl>,
#   Portion <chr>, Heat <dbl>, EdgeDam <dbl>, Weathering <dbl>, Corerot <dbl>,
#   RetScNo <dbl>, Term <chr>, Janus <lgl>, Recycled <lgl>, Redirect <lgl>,
#   Width <dbl>, Thick <dbl>, Platthic <dbl>, area <dbl>, elongation <dbl>
```
…
```r
library(infer)  

# compute chi-square statistic
j_data1 %>%  
* specify(Material ~ Artclas)
```
]
 
.right-output-test-chi-square-2-auto[

```
Response: Material (factor)
Explanatory: Artclas (factor)
# A tibble: 297 x 2
   Material Artclas
   <fct>    <fct>  
 1 Volcanic Flake  
 2 Volcanic Flake  
 3 Volcanic Hshat  
 4 Volcanic Hshat  
 5 Volcanic Hshat  
 6 Volcanic Hshat  
 7 Volcanic Hshat  
 8 Volcanic Flake  
 9 Volcanic Flake  
10 Volcanic Flake  
# … with 287 more rows
```
…
# generate data and chi-square
# statistics under the null
*j_data1
```
]
 
.right-output-test-chi-square-2-auto[

```
X-squared 
 2.630641 
```

```
# A tibble: 297 x 48
   Site  Square  Spit Group Artno Material Colour Weight Length Artclas Cortex
   <chr> <chr>  <dbl> <dbl> <dbl> <chr>    <chr>   <dbl>  <dbl> <chr>    <dbl>
 1 J     B          1     1    33 Volcanic Brown    0.23   8.5  Flake        0
 2 J     B          1     1    38 Volcanic Dk Gr…   0.06   4.24 Flake       60
 3 J     B          1     1    70 Volcanic Dk Br…   0.31   7.43 Hshat       NA
 4 J     B          1     1    71 Volcanic Dk Br…   0.26   6.4  Hshat       NA
 5 J     B          1     1    72 Volcanic Dk Br…   0.06   7.3  Hshat       NA
 6 J     B          1     1    73 Volcanic Dk Br…   0.16   7.84 Hshat       NA
 7 J     B          1     1    78 Volcanic Lt Br…   0.02   6.47 Hshat       NA
 8 J     B          2     1    88 Volcanic Grey     0.38  13.3  Flake       40
 9 J     B          3     1   130 Volcanic Grey    17.8   38.4  Flake        0
10 J     B          3     1   131 Volcanic Grey    32.1   57.4  Flake       40
# … with 287 more rows, and 37 more variables: Cortype <chr>, Initiat <chr>,
#   Breaks <chr>, Noseg <dbl>, Platwid <dbl>, Plat <chr>, Focal <lgl>,
#   Overhang <chr>, NoDS <dbl>, NoPS <dbl>, Rtch <chr>, Plat_2 <chr>,
#   Focal_2 <lgl>, Overhang_2 <chr>, NoDS_2 <dbl>, NoPS_2 <dbl>, Rtch_2 <chr>,
#   RetOri <chr>, Retype <chr>, Retloc <chr>, Retlen <dbl>, Retdep <dbl>,
#   Portion <chr>, Heat <dbl>, EdgeDam <dbl>, Weathering <dbl>, Corerot <dbl>,
#   RetScNo <dbl>, Term <chr>, Janus <lgl>, Recycled <lgl>, Redirect <lgl>,
#   Width <dbl>, Thick <dbl>, Platthic <dbl>, area <dbl>, elongation <dbl>
```
…
.right-output-test-chi-square-2-auto[

```
X-squared 
 2.630641 
```

```
Response: Material (factor)
Explanatory: Artclas (factor)
# A tibble: 297 x 2
   Material Artclas
   <fct>    <fct>  
 1 Volcanic Flake  
 2 Volcanic Flake  
 3 Volcanic Hshat  
 4 Volcanic Hshat  
 5 Volcanic Hshat  
 6 Volcanic Hshat  
 7 Volcanic Hshat  
 8 Volcanic Flake  
 9 Volcanic Flake  
10 Volcanic Flake  
# … with 287 more rows
```
…
.right-output-test-chi-square-2-auto[

```
X-squared 
 2.630641 
```

```
Response: Material (factor)
Explanatory: Artclas (factor)
Null Hypothesis: independence
# A tibble: 297 x 2
   Material Artclas
   <fct>    <fct>  
 1 Volcanic Flake  
 2 Volcanic Flake  
 3 Volcanic Hshat  
 4 Volcanic Hshat  
 5 Volcanic Hshat  
 6 Volcanic Hshat  
 7 Volcanic Hshat  
 8 Volcanic Flake  
 9 Volcanic Flake  
10 Volcanic Flake  
# … with 287 more rows
```
…
.right-output-test-chi-square-2-auto[

```
X-squared 
 2.630641 
```

```
Response: Material (factor)
Explanatory: Artclas (factor)
Null Hypothesis: independence
# A tibble: 297,000 x 3
# Groups:   replicate [1,000]
   Material  Artclas replicate
   <fct>     <fct>       <int>
 1 Volcanic  Flake           1
 2 Volcanic  Flake           1
 3 Volcanic  Hshat           1
 4 Volcanic  Hshat           1
 5 Quartzite Hshat           1
 6 Volcanic  Hshat           1
 7 Volcanic  Hshat           1
 8 Volcanic  Flake           1
 9 Volcanic  Flake           1
10 Volcanic  Flake           1
# … with 296,990 more rows
```
…
.right-output-test-chi-square-2-auto[

```
X-squared 
 2.630641 
```

```
# A tibble: 1,000 x 2
   replicate  stat
       <int> <dbl>
 1         1 2.63 
 2         2 0.581
 3         3 1.28 
 4         4 3.82 
 5         5 0.729
 6         6 0.729
 7         7 0.729
 8         8 3.84 
 9         9 2.00 
10        10 1.28 
# … with 990 more rows
```
…
Visualise the chi-square test for our data with the random data
.left-code-test-chi-square-3-auto[

```r
# visualise
*null_distribution
```
]
 
.right-output-test-chi-square-3-auto[

```
# A tibble: 1,000 x 2
   replicate  stat
       <int> <dbl>
 1         1 6.47 
 2         2 2.00 
 3         3 0.729
 4         4 2.63 
 5         5 7.04 
 6         6 0.729
 7         7 3.84 
 8         8 1.28 
 9         9 0.729
10        10 0.971
# … with 990 more rows
```
…
.left-code-test-chi-square-4-auto[

```r
# get the chi-square statistic,
# degrees of freedom, and p-value
*j_data1
```
]
 
.right-output-test-chi-square-4-auto[

```
# A tibble: 297 x 48
   Site  Square  Spit Group Artno Material Colour Weight Length Artclas Cortex
   <chr> <chr>  <dbl> <dbl> <dbl> <chr>    <chr>   <dbl>  <dbl> <chr>    <dbl>
 1 J     B          1     1    33 Volcanic Brown    0.23   8.5  Flake        0
 2 J     B          1     1    38 Volcanic Dk Gr…   0.06   4.24 Flake       60
 3 J     B          1     1    70 Volcanic Dk Br…   0.31   7.43 Hshat       NA
 4 J     B          1     1    71 Volcanic Dk Br…   0.26   6.4  Hshat       NA
 5 J     B          1     1    72 Volcanic Dk Br…   0.06   7.3  Hshat       NA
 6 J     B          1     1    73 Volcanic Dk Br…   0.16   7.84 Hshat       NA
 7 J     B          1     1    78 Volcanic Lt Br…   0.02   6.47 Hshat       NA
 8 J     B          2     1    88 Volcanic Grey     0.38  13.3  Flake       40
 9 J     B          3     1   130 Volcanic Grey    17.8   38.4  Flake        0
10 J     B          3     1   131 Volcanic Grey    32.1   57.4  Flake       40
# … with 287 more rows, and 37 more variables: Cortype <chr>, Initiat <chr>,
#   Breaks <chr>, Noseg <dbl>, Platwid <dbl>, Plat <chr>, Focal <lgl>,
#   Overhang <chr>, NoDS <dbl>, NoPS <dbl>, Rtch <chr>, Plat_2 <chr>,
#   Focal_2 <lgl>, Overhang_2 <chr>, NoDS_2 <dbl>, NoPS_2 <dbl>, Rtch_2 <chr>,
#   RetOri <chr>, Retype <chr>, Retloc <chr>, Retlen <dbl>, Retdep <dbl>,
#   Portion <chr>, Heat <dbl>, EdgeDam <dbl>, Weathering <dbl>, Corerot <dbl>,
#   RetScNo <dbl>, Term <chr>, Janus <lgl>, Recycled <lgl>, Redirect <lgl>,
#   Width <dbl>, Thick <dbl>, Platthic <dbl>, area <dbl>, elongation <dbl>
```
…
Compute the observed statistic, and use our real data to generate many fake datasets based on our null hypothesis
.left-code-t-test-2b-auto[

```r
library(infer)  

# compute t-test statistic
*j_data2
```
]
 
.right-output-t-test-2b-auto[

```
# A tibble: 4,697 x 48
   Site  Square  Spit Group Artno Material Colour Weight Length Artclas Cortex
   <chr> <chr>  <dbl> <dbl> <dbl> <chr>    <chr>   <dbl>  <dbl> <chr>    <dbl>
 1 J     B          1     1     1 Chert    Brown    1.83  22.0  Flake        0
 2 J     B          1     1     5 Chert    Grey     0.05   7.07 Flake        0
 3 J     B          1     1     7 Chert    Dk Br…   0.03   5.72 Flake        0
 4 J     B          1     1    10 Chert    Grey     0.25  14.3  Flake        0
 5 J     B          1     1    11 Chert    Brown    0.33  11.2  Flake        0
 6 J     B          1     1    18 Chert    Lt Br…   0.03   3.58 Flake        0
 7 J     B          1     1    19 Chert    Red      0.02   4.79 Flake        0
 8 J     B          1     1    20 Chert    Grey     0.01   3.29 Flake        0
 9 J     B          1     1    21 Chert    Brown    0.06   6.02 Flake        0
10 J     B          1     1    22 Chert    Pink     0.01   3.51 Flake        0
# … with 4,687 more rows, and 37 more variables: Cortype <chr>, Initiat <chr>,
#   Breaks <chr>, Noseg <dbl>, Platwid <dbl>, Plat <chr>, Focal <lgl>,
#   Overhang <chr>, NoDS <dbl>, NoPS <dbl>, Rtch <chr>, Plat_2 <chr>,
#   Focal_2 <lgl>, Overhang_2 <chr>, NoDS_2 <dbl>, NoPS_2 <dbl>, Rtch_2 <chr>,
#   RetOri <chr>, Retype <chr>, Retloc <chr>, Retlen <dbl>, Retdep <dbl>,
#   Portion <chr>, Heat <dbl>, EdgeDam <dbl>, Weathering <dbl>, Corerot <dbl>,
#   RetScNo <dbl>, Term <chr>, Janus <lgl>, Recycled <lgl>, Redirect <lgl>,
#   Width <dbl>, Thick <dbl>, Platthic <dbl>, area <dbl>, elongation <dbl>
```
…
```r
library(infer)  

# compute t-test statistic
j_data2 %>%  
* specify(Length ~ Material)
```
]
 
.right-output-t-test-2b-auto[

```
Response: Length (numeric)
Explanatory: Material (factor)
# A tibble: 4,697 x 2
   Length Material
    <dbl> <fct>   
 1  22.0  Chert   
 2   7.07 Chert   
 3   5.72 Chert   
 4  14.3  Chert   
 5  11.2  Chert   
 6   3.58 Chert   
 7   4.79 Chert   
 8   3.29 Chert   
 9   6.02 Chert   
10   3.51 Chert   
# … with 4,687 more rows
```
…
.right-output-t-test-2b-auto[

```
# A tibble: 1 x 1
   stat
  <dbl>
1  6.72
```

```
# A tibble: 4,697 x 48
   Site  Square  Spit Group Artno Material Colour Weight Length Artclas Cortex
   <chr> <chr>  <dbl> <dbl> <dbl> <chr>    <chr>   <dbl>  <dbl> <chr>    <dbl>
 1 J     B          1     1     1 Chert    Brown    1.83  22.0  Flake        0
 2 J     B          1     1     5 Chert    Grey     0.05   7.07 Flake        0
 3 J     B          1     1     7 Chert    Dk Br…   0.03   5.72 Flake        0
 4 J     B          1     1    10 Chert    Grey     0.25  14.3  Flake        0
 5 J     B          1     1    11 Chert    Brown    0.33  11.2  Flake        0
 6 J     B          1     1    18 Chert    Lt Br…   0.03   3.58 Flake        0
 7 J     B          1     1    19 Chert    Red      0.02   4.79 Flake        0
 8 J     B          1     1    20 Chert    Grey     0.01   3.29 Flake        0
 9 J     B          1     1    21 Chert    Brown    0.06   6.02 Flake        0
10 J     B          1     1    22 Chert    Pink     0.01   3.51 Flake        0
# … with 4,687 more rows, and 37 more variables: Cortype <chr>, Initiat <chr>,
#   Breaks <chr>, Noseg <dbl>, Platwid <dbl>, Plat <chr>, Focal <lgl>,
#   Overhang <chr>, NoDS <dbl>, NoPS <dbl>, Rtch <chr>, Plat_2 <chr>,
#   Focal_2 <lgl>, Overhang_2 <chr>, NoDS_2 <dbl>, NoPS_2 <dbl>, Rtch_2 <chr>,
#   RetOri <chr>, Retype <chr>, Retloc <chr>, Retlen <dbl>, Retdep <dbl>,
#   Portion <chr>, Heat <dbl>, EdgeDam <dbl>, Weathering <dbl>, Corerot <dbl>,
#   RetScNo <dbl>, Term <chr>, Janus <lgl>, Recycled <lgl>, Redirect <lgl>,
#   Width <dbl>, Thick <dbl>, Platthic <dbl>, area <dbl>, elongation <dbl>
```
…
.right-output-t-test-2b-auto[

```
# A tibble: 1 x 1
   stat
  <dbl>
1  6.72
```

```
Response: Length (numeric)
Explanatory: Material (factor)
# A tibble: 4,697 x 2
   Length Material
    <dbl> <fct>   
 1  22.0  Chert   
 2   7.07 Chert   
 3   5.72 Chert   
 4  14.3  Chert   
 5  11.2  Chert   
 6   3.58 Chert   
 7   4.79 Chert   
 8   3.29 Chert   
 9   6.02 Chert   
10   3.51 Chert   
# … with 4,687 more rows
```
…
.right-output-t-test-2b-auto[

```
# A tibble: 1 x 1
   stat
  <dbl>
1  6.72
```

```
Response: Length (numeric)
Explanatory: Material (factor)
Null Hypothesis: independence
# A tibble: 4,697 x 2
   Length Material
    <dbl> <fct>   
 1  22.0  Chert   
 2   7.07 Chert   
 3   5.72 Chert   
 4  14.3  Chert   
 5  11.2  Chert   
 6   3.58 Chert   
 7   4.79 Chert   
 8   3.29 Chert   
 9   6.02 Chert   
10   3.51 Chert   
# … with 4,687 more rows
```
…
.right-output-t-test-2b-auto[

```
# A tibble: 1 x 1
   stat
  <dbl>
1  6.72
```

```
Response: Length (numeric)
Explanatory: Material (factor)
Null Hypothesis: independence
# A tibble: 4,697,000 x 3
# Groups:   replicate [1,000]
   Length Material replicate
    <dbl> <fct>        <int>
 1   9.36 Chert            1
 2   7.14 Chert            1
 3  22.1  Chert            1
 4   5.22 Chert            1
 5  21.1  Chert            1
 6   6.08 Chert            1
 7  10.7  Chert            1
 8  10.7  Chert            1
 9   3.88 Chert            1
10  11.6  Chert            1
# … with 4,696,990 more rows
```
…
.right-output-t-test-2b-auto[

```
# A tibble: 1 x 1
   stat
  <dbl>
1  6.72
```

```
# A tibble: 1,000 x 2
   replicate   stat
       <int>  <dbl>
 1         1 -0.436
 2         2 -1.08 
 3         3  1.47 
 4         4 -0.744
 5         5  0.309
 6         6  1.37 
 7         7  0.258
 8         8 -2.28 
 9         9 -2.04 
10        10  0.766
# … with 990 more rows
```
…
Visualise the t-test for our data with the random data
.left-code-t-test-3-auto[

```r
# visualise
*null_distribution
```
]
 
.right-output-t-test-3-auto[

```
# A tibble: 1,000 x 2
   replicate   stat
       <int>  <dbl>
 1         1  1.18 
 2         2  0.232
 3         3  0.790
 4         4 -0.966
 5         5 -1.12 
 6         6 -0.429
 7         7 -0.125
 8         8  1.95 
 9         9 -0.105
10        10  0.299
# … with 990 more rows
```
…
.left-code-t-test-4-auto[

```r
# get the t-test statistic,
# degrees of freedom, and p-value
*j_data1
```
]
 
.right-output-t-test-4-auto[

```
# A tibble: 297 x 48
   Site  Square  Spit Group Artno Material Colour Weight Length Artclas Cortex
   <chr> <chr>  <dbl> <dbl> <dbl> <chr>    <chr>   <dbl>  <dbl> <chr>    <dbl>
 1 J     B          1     1    33 Volcanic Brown    0.23   8.5  Flake        0
 2 J     B          1     1    38 Volcanic Dk Gr…   0.06   4.24 Flake       60
 3 J     B          1     1    70 Volcanic Dk Br…   0.31   7.43 Hshat       NA
 4 J     B          1     1    71 Volcanic Dk Br…   0.26   6.4  Hshat       NA
 5 J     B          1     1    72 Volcanic Dk Br…   0.06   7.3  Hshat       NA
 6 J     B          1     1    73 Volcanic Dk Br…   0.16   7.84 Hshat       NA
 7 J     B          1     1    78 Volcanic Lt Br…   0.02   6.47 Hshat       NA
 8 J     B          2     1    88 Volcanic Grey     0.38  13.3  Flake       40
 9 J     B          3     1   130 Volcanic Grey    17.8   38.4  Flake        0
10 J     B          3     1   131 Volcanic Grey    32.1   57.4  Flake       40
# … with 287 more rows, and 37 more variables: Cortype <chr>, Initiat <chr>,
#   Breaks <chr>, Noseg <dbl>, Platwid <dbl>, Plat <chr>, Focal <lgl>,
#   Overhang <chr>, NoDS <dbl>, NoPS <dbl>, Rtch <chr>, Plat_2 <chr>,
#   Focal_2 <lgl>, Overhang_2 <chr>, NoDS_2 <dbl>, NoPS_2 <dbl>, Rtch_2 <chr>,
#   RetOri <chr>, Retype <chr>, Retloc <chr>, Retlen <dbl>, Retdep <dbl>,
#   Portion <chr>, Heat <dbl>, EdgeDam <dbl>, Weathering <dbl>, Corerot <dbl>,
#   RetScNo <dbl>, Term <chr>, Janus <lgl>, Recycled <lgl>, Redirect <lgl>,
#   Width <dbl>, Thick <dbl>, Platthic <dbl>, area <dbl>, elongation <dbl>
```
…
Compute the observed statistic, and use our real data to generate many fake datasets based on our null hypothesis
.left-code-anova-2-auto[

```r
library(infer)  

# compute F statistic
*j_data3
```
]
 
.right-output-anova-2-auto[

```
# A tibble: 4,826 x 48
   Site  Square  Spit Group Artno Material Colour Weight Length Artclas Cortex
   <chr> <chr>  <dbl> <dbl> <dbl> <chr>    <chr>   <dbl>  <dbl> <chr>    <dbl>
 1 J     B          1     1     1 Chert    Brown    1.83  22.0  Flake        0
 2 J     B          1     1     5 Chert    Grey     0.05   7.07 Flake        0
 3 J     B          1     1     7 Chert    Dk Br…   0.03   5.72 Flake        0
 4 J     B          1     1    10 Chert    Grey     0.25  14.3  Flake        0
 5 J     B          1     1    11 Chert    Brown    0.33  11.2  Flake        0
 6 J     B          1     1    18 Chert    Lt Br…   0.03   3.58 Flake        0
 7 J     B          1     1    19 Chert    Red      0.02   4.79 Flake        0
 8 J     B          1     1    20 Chert    Grey     0.01   3.29 Flake        0
 9 J     B          1     1    21 Chert    Brown    0.06   6.02 Flake        0
10 J     B          1     1    22 Chert    Pink     0.01   3.51 Flake        0
# … with 4,816 more rows, and 37 more variables: Cortype <chr>, Initiat <chr>,
#   Breaks <chr>, Noseg <dbl>, Platwid <dbl>, Plat <chr>, Focal <lgl>,
#   Overhang <chr>, NoDS <dbl>, NoPS <dbl>, Rtch <chr>, Plat_2 <chr>,
#   Focal_2 <lgl>, Overhang_2 <chr>, NoDS_2 <dbl>, NoPS_2 <dbl>, Rtch_2 <chr>,
#   RetOri <chr>, Retype <chr>, Retloc <chr>, Retlen <dbl>, Retdep <dbl>,
#   Portion <chr>, Heat <dbl>, EdgeDam <dbl>, Weathering <dbl>, Corerot <dbl>,
#   RetScNo <dbl>, Term <chr>, Janus <lgl>, Recycled <lgl>, Redirect <lgl>,
#   Width <dbl>, Thick <dbl>, Platthic <dbl>, area <dbl>, elongation <dbl>
```
…
